OPTIONVAL;STRIKES
47.01344052634503;50
47.10413156995465;51
47.008170578128365;52
48.22899598867188;53
45.99371017061435;54
41.856198577743626;55
;56
40.221317568251585;57
39.77197218812633;58
41.88010745020227;59
40.60291969268913;60
40.857169878604424;61
34.71150260567651;62
38.62782407169837;63
32.849907023123926;64
33.81379216143555;65
32.75016099374325;66
32.30637921335314;67
30.53886449328255;68
27.599867238310622;69
30.104266899452224;70
;71
23.817135374094082;72
29.790988167329505;73
27.261863949183066;74
24.492199334776398;75
22.473252936732354;76
21.697182647386857;77
22.90230440597856;78
19.073415189560684;79
21.125152727634042;80
18.437283545993225;81
19.198920184786637;82
16.819172292672587;83
17.29124193151162;84
16.755762184531978;85
18.722280214808016;86
15.878941026241487;87
15.233312180462875;88
;89
13.058665997771984;90
12.36714282644651;91
12.254750508784598;92
13.843890676110913;93
12.381131030978086;94
9.210321446381043;95
9.526371434576834;96
6.746480839330698;97
;98
7.255311829030831;99
7.553649086863926;100
4.826869705486928;101
7.349493137184303;102
4.692905202408102;103
6.007177314990371;104
5.656505551097236;105
7.90036422318756;106
4.675522098051758;107
5.347108644443067;108
3.267863308849067;109
3.2152752582641106;110
3.411868067429195;111
5.312236369041784;112
;113
4.371767609916247;114
3.382608843297875;115
3.1697527199777396;116
1.6067360750179471;117
1.858843278669344;118
1.9066108007869347;119
2.7516485607549517;120
2.9674388168267076;121
1.3324552561279674;122
2.143469281260686;123
1.675509773963861;124
0.48472256943076353;125
0.8805396159954135;126
;127
1.0873231584986394;128
0.973957698770406;129
0.7151637776440013;130
;131
1.0930773990822764;132
0.677555609004856;133
0.6466877447821218;134
0.5987117878021938;135
0.4322856261522465;136
1.238190070299079;137
0.056584894060759894;138
0.6872205551155888;139
0.3035976844382513;140
0.04423310569733137;141
0.10855793460512979;142
0.0;143
0.4745167114730623;144
0.7274098400413781;145
0.4269841573332604;146
0.43538738098514146;147
0.07524505586375514;148
0.18836857740590932;149
